/Users/edwardblurock/reactionrun/mechs/chemkin/propaneNOXSupplementedSetup.inp ======================= Setup for Reading CHEMKIN mechanism ======================= 
Attributes:
%%% --------------------------------------------------
%%%   MoleculeClass  String
%%% --------------------------------------------------
StandardMolecule
%%% --------------------------------------------------
%%%   ReactionClass  String
%%% --------------------------------------------------
StandardReaction
%%% --------------------------------------------------
%%%   MechanismClass  String
%%% --------------------------------------------------
StandardMechanism
%%% --------------------------------------------------
%%%   ChemkinClass  String
%%% --------------------------------------------------
StandardChemkin
%%% --------------------------------------------------
%%%   ThermoNameInInstance  String
%%% --------------------------------------------------
MoleculeChemkin
%%% --------------------------------------------------
%%%   ChemkinNameInInstance  String
%%% --------------------------------------------------
ChemkinName
%%% --------------------------------------------------
%%%   LiteratureReference  String
%%% --------------------------------------------------
Reference
%%% --------------------------------------------------
%%%   MoleculeSummaryName  String
%%% --------------------------------------------------
StandardMoleculeSummary
%%% --------------------------------------------------
%%%   ReactionRate  String
%%% --------------------------------------------------
CalorieReactionRates
%%% --------------------------------------------------
%%%   ThirdBody  String
%%% --------------------------------------------------
StandardThirdBody
%%% --------------------------------------------------
%%%   ReactionRateHiLow  String
%%% --------------------------------------------------
StandardReactionRateHiLow
%%% --------------------------------------------------
%%%   FileRoot  String
%%% --------------------------------------------------
data/mechs/chemkin/propaneNOXSupplemented
%%% --------------------------------------------------
%%%   Reference LiteratureReference
%%% --------------------------------------------------
Mechanism;Reaction;Literature Mechanism
%%% --------------------------------------------------
%%%   StandardMoleculeSummary StandardMoleculeSummary
%%% --------------------------------------------------
END
END
