2 C2HO
ethane
- AlternativeNames CHEMKIN C2H6
- AlternativeNames Short C2H6
ethyl-radical
- AlternativeNames CHEMKIN C2H5
- AlternativeNames Short C2H5
ethene
- AlternativeNames CHEMKIN C2H4
- AlternativeNames Short C2H4
ethenyl-radical
- AlternativeNames CHEMKIN C2H3
- AlternativeNames Short C2H3
ethyne
- AlternativeNames CHEMKIN C2H2
- AlternativeNames Short C2H2
ethynyl-radical
- AlternativeNames CHEMKIN C2H
- AlternativeNames Short C2H
ethanal
- AlternativeNames CHEMKIN CH3CHO
- AlternativeNames Short CH3CHO
ethanal-2-yl-radical
- AlternativeNames CHEMKIN CH2CHO
- AlternativeNames Short CH2CHO
ethenone
- AlternativeNames CHEMKIN CH2CO
- AlternativeNames Short CH2CO
ketenyl-radical
- AlternativeNames CHEMKIN HCCO
- AlternativeNames Short HCCO
Oxiranyl-radical
- AlternativeNames CHEMKIN C2H3O
- AlternativeNames Short C2H3O
ethanol
- AlternativeNames CHEMKIN C2H5OH
- AlternativeNames Short C2H5OH
ethoxy-radical
- AlternativeNames CHEMKIN C2H5O
- AlternativeNames Short C2H5O
ethylperoxy-radical
- AlternativeNames CHEMKIN C2H5O2
- AlternativeNames Short C2H5O2
ethyl-hydroperoxide
- AlternativeNames CHEMKIN C2H4O2H
- AlternativeNames Short C2H4O2H
oxirane
- AlternativeNames CHEMKIN OXIRANE
- AlternativeNames Short OXIRANE
methylcarboxy-radical
- AlternativeNames CHEMKIN CH3CO2
- AlternativeNames Short CH3CO2
ethanoic-acid
- AlternativeNames CHEMKIN CH3COOH
- AlternativeNames Short CH3COOH
methylperoxyacyl-radical
- AlternativeNames CHEMKIN CH3CO3
- AlternativeNames Short CH3CO3
peroxyethanoic-acid
- AlternativeNames CHEMKIN CH3CO3H
- AlternativeNames Short CH3CO3H
hydroperoxyethanyl-radical
- AlternativeNames CHEMKIN C2H4O2H
- AlternativeNames Short C2H4O2H
diformyl
- AlternativeNames CHEMKIN CHOCHO
- AlternativeNames Short CHOCHO
ethanoyl-radical
- AlternativeNames CHEMKIN CH3CO
- AlternativeNames Short CH3CO
dimethylperoxide
- AlternativeNames CHEMKIN CH3O2CH3
- AlternativeNames Short CH3O2CH3
