1 C4Part3
1-hydroperoxybutane
- AlternativeNames CHEMKIN pc4h9o2h
- AlternativeNames Short pc4h9o2h
- AlternativeNames Formula C4H10O2
2-hydroperoxybutane
- AlternativeNames CHEMKIN sc4h9o2h
- AlternativeNames Short sc4h9o2h
- AlternativeNames Formula C4H10O2
1-hydroperoxy-2-methylpropane
- AlternativeNames CHEMKIN ic4h9o2h
- AlternativeNames Short sc4h9o2h
- AlternativeNames Formula C4H10O2
2-hydroperoxy-2-methylpropane
- AlternativeNames CHEMKIN tc4h9o2h
- AlternativeNames Short sc4h9o2h
- AlternativeNames Formula C4H10O2
1-oxybutane-radical
- AlternativeNames CHEMKIN pc4h9o
- AlternativeNames Short pc4h9o
- AlternativeNames Formula C4H9O
2-oxybutane-radical
- AlternativeNames CHEMKIN sc4h9o
- AlternativeNames Short sc4h9o
- AlternativeNames Formula C4H9O
1-oxy-2-methylpropane
- AlternativeNames CHEMKIN ic4h9o
- AlternativeNames Short ic4h9o
- AlternativeNames Formula C4H9O
2-oxy-2-methylpropane
- AlternativeNames CHEMKIN tc4h9o
- AlternativeNames Short tc4h9o
- AlternativeNames Formula C4H9O
ethyloxirane
- AlternativeNames CHEMKIN c4h8o1-2
- AlternativeNames Short c4h8o1-2
- AlternativeNames Formula C4H8O
methyloxetane
- AlternativeNames CHEMKIN c4h8o1-3
- AlternativeNames Short c4h8o1-3
- AlternativeNames Formula C4H8O
tetrahydrofuran
- AlternativeNames CHEMKIN c4h8o1-4
- AlternativeNames Short c4h8o1-4
- AlternativeNames Formula C4H8O
1,3-dimethyloxirane
- AlternativeNames CHEMKIN c4h8o2-3
- AlternativeNames Short c4h8o2-3
- AlternativeNames Formula C4H8O
2-methyloxetane
- AlternativeNames CHEMKIN cc4h8o
- AlternativeNames Short cc4h8o
- AlternativeNames Formula C4H8O
