1 C4Part2
methylprop-2-yl-radical
- AlternativeNames CHEMKIN T-C4H9
- AlternativeNames Short T-C4H9
methylprop-1-yl-radical
- AlternativeNames CHEMKIN I-C4H9
- AlternativeNames Short I-C4H9
2-methyl-prop-2-peroxy-radical
- AlternativeNames CHEMKIN tc4h9o2
- AlternativeNames Short   tc4h9o2
2-methyl-prop-1-peroxy-radical
- AlternativeNames CHEMKIN ic4h9o2
- AlternativeNames Short   ic4h9o2
2-hydroperoxy-2-methyl-prop-1-yl-radical
- AlternativeNames CHEMKIN tc4h8o2h-i
- AlternativeNames Short   tc4h8o2h-i
1-hydroperoxy-2-methyl-prop-2-yl-radical
- AlternativeNames CHEMKIN ic4h8o2h-t
- AlternativeNames Short   ic4h8o2h-t
1-hydroperoxy-2-methyl-prop-3-yl-radical
- AlternativeNames CHEMKIN ic4h8o2h-i
- AlternativeNames Short   ic4h8o2h-i
2-hydroperoxy-2-methyl-prop-1-peroxy-radical
- AlternativeNames CHEMKIN tc4h8ooh-io2
- AlternativeNames Short   tc4h8ooh-io2
3-hydroperoxy-2-methyl-prop-1-peroxy-radical
- AlternativeNames CHEMKIN ic4h8ooh-io2
- AlternativeNames Short   ic4h8ooh-io2
1-hydroperoxy-2-methyl-prop-2-peroxy-radical
- AlternativeNames CHEMKIN ic4h8ooh-to2
- AlternativeNames Short   ic4h8ooh-to2
2-hydroperoxy-but-1-peroxy-radical
- AlternativeNames CHEMKIN c4h8ooh2-1o2
- AlternativeNames Short   c4h8ooh2-1o2
1-hydroxy-but-2-yl-radical
- AlternativeNames CHEMKIN c4h8oh-2
- AlternativeNames Short   c4h8oh-2
2-hydroxy-but-1-yl-radical
- AlternativeNames CHEMKIN c4h8oh-1
- AlternativeNames Short   c4h8oh-1
3-hydroxy-but-2-yl-radical
- AlternativeNames CHEMKIN c4h8oh-3
- AlternativeNames Short   c4h8oh-3
1-hydroxy-2-methyl-prop-2-yl-radical
- AlternativeNames CHEMKIN ic4h8oh
- AlternativeNames Short   ic4h8oh
2-hydroxy-2-methyl-prop-1-yl-radical
- AlternativeNames CHEMKIN tc4h8oh
- AlternativeNames Short   tc4h8oh
1-hydroxy-2-methyl-prop-2-peroxy-radical
- AlternativeNames CHEMKIN io2c4h8oh
- AlternativeNames Short   io2c4h8oh
1-hydroxy-2-methyl-prop-2-peroxy-radical
- AlternativeNames CHEMKIN to2c4h8oh
- AlternativeNames Short   to2c4h8oh
2-hydroxy-but-1-peroxy-radical
- AlternativeNames CHEMKIN c4h8oh-1o2
- AlternativeNames Short   c4h8oh-1o2
1-hydroxy-but-2-peroxy-radical
- AlternativeNames CHEMKIN c4h8oh-2o2
- AlternativeNames Short   c4h8oh-2o2
3-hydroxy-but-2-peroxy-radical
- AlternativeNames CHEMKIN c4h8oh-3o2
- AlternativeNames Short   c4h8oh-3o2
but-1-en-1-yl-radical
- AlternativeNames CHEMKIN CHCHCH2CH3
- AlternativeNames Short   CHCHCH2CH3
but-1-en-2-yl-radical
- AlternativeNames CHEMKIN CH2CCH2CH3
- AlternativeNames Short   CH2CCH2CH3
but-3-en-2-yl-radical
- AlternativeNames CHEMKIN CH2CHCHCH3
- AlternativeNames Short   CH2CHCHCH3
prop-1-en-1-one
- AlternativeNames CHEMKIN CH3CHCO
- AlternativeNames Short   CH3CHCO
but-2-en-1-yl-radical
- AlternativeNames CHEMKIN CH2CHCHCH3
- AlternativeNames Short   CH2CHCHCH3
but-2-en-2-yl-radical
- AlternativeNames CHEMKIN CH3CCHCH3
- AlternativeNames Short   CH3CCHCH3
2-methyl-prop-1-en-1-yl-radical
- AlternativeNames CHEMKIN I-CHCCH3CH3
- AlternativeNames Short   I-CHCCH3CH3
2-methyl-prop-2-en-1-yl-radical
- AlternativeNames CHEMKIN I-CH2CCH3CH2
- AlternativeNames Short   I-CH2CCH3CH2
2-hydroperoxy-2-methyl-propanal
- AlternativeNames CHEMKIN I-CH3COOHCH3CHO
- AlternativeNames Short   I-CH3COOHCH3CHO
3-hydroperoxy-2-methyl-propanal
- AlternativeNames CHEMKIN I-CH2OOHCHCH3CHO
- AlternativeNames Short   I-CH2OOHCHCH3CHO
but-2-yne
- AlternativeNames CHEMKIN CH3CCCH3
- AlternativeNames Short   CH3CCCH3
2-methyl-prop-2-ene-1-peroxy-radical
- AlternativeNames CHEMKIN iC4H7O2-3
- AlternativeNames Short   iC4H7O2-3
but-2-ene-1-peroxy-radical
- AlternativeNames CHEMKIN 2-C4H7OO-1
- AlternativeNames Short   2-C4H7OO-1
but-3-ene-2-peroxy-radical
- AlternativeNames CHEMKIN 1-C4H7OO-3
- AlternativeNames Short   1-C4H7OO-3
